{
  "$schema": "vscode://schemas/color-theme",
  "name": "Codesbiome Theme (Dark)",
  "type": "dark",
  "author": "Gary",
  "package": "Theme",
  "include": "./dark-default-colors.json",
  "tokenColors": [
    {
      "name": "Function declarations",
      "scope": ["entity.name.function", "support.function", "support.constant.handlebars"],
      "settings": {
        "foreground": "#bbbb88"
      }
    },
    {
      "name": "Types declaration and references",
      "scope": [
        "meta.return-type",
        "support.class",
        "support.type",
        "entity.name.type",
        "entity.name.class",
        "storage.type.numeric.go",
        "storage.type.byte.go",
        "storage.type.boolean.go",
        "storage.type.string.go",
        "storage.type.uintptr.go",
        "storage.type.cs",
        "storage.type.generic.cs",
        "storage.type.modifier.cs",
        "storage.type.variable.cs",
        "storage.type.annotation.java",
        "storage.type.generic.java",
        "storage.type.java",
        "storage.type.object.array.java",
        "storage.type.primitive.array.java",
        "storage.type.primitive.java",
        "storage.type.token.java",
        "storage.type.groovy",
        "storage.type.annotation.groovy",
        "storage.type.parameters.groovy",
        "storage.type.generic.groovy",
        "storage.type.object.array.groovy",
        "storage.type.primitive.array.groovy",
        "storage.type.primitive.groovy"
      ],
      "settings": {
        "foreground": "#40af98"
      }
    },
    {
      "name": "Types declaration and references, TS grammar specific",
      "scope": [
        "meta.type.cast.expr",
        "meta.type.new.expr",
        "support.constant.math",
        "support.constant.dom",
        "support.constant.json",
        "entity.other.inherited-class"
      ],
      "settings": {
        "foreground": "#40af98"
      }
    },
    {
      "name": "Control flow keywords",
      "scope": "keyword.control",
      "settings": {
        "foreground": "#ad71a8"
      }
    },
    {
      "name": "Variable and parameter name",
      "scope": [
        "variable",
        "meta.definition.variable.name",
        "support.variable",
        "entity.name.variable"
      ],
      "settings": {
        "foreground": "#74afce"
      }
    },
    {
      "name": "Object keys, TS grammar specific",
      "scope": ["meta.object-literal.key"],
      "settings": {
        "foreground": "#a2b5bf"
      }
    },
    {
      "name": "CSS property value",
      "scope": [
        "support.constant.property-value",
        "support.constant.font-name",
        "support.constant.media-type",
        "support.constant.media",
        "constant.other.color.rgb-value",
        "constant.other.rgb-value",
        "support.constant.color"
      ],
      "settings": {
        "foreground": "#bb816a"
      }
    },
    {
      "name": "Regular expression groups",
      "scope": [
        "punctuation.definition.group.regexp",
        "punctuation.definition.group.assertion.regexp",
        "punctuation.definition.character-class.regexp",
        "punctuation.character.set.begin.regexp",
        "punctuation.character.set.end.regexp",
        "keyword.operator.negation.regexp",
        "support.other.parenthesis.regexp"
      ],
      "settings": {
        "foreground": "#bb816a"
      }
    },
    {
      "scope": [
        "constant.character.character-class.regexp",
        "constant.other.character-class.set.regexp",
        "constant.other.character-class.regexp",
        "constant.character.set.regexp"
      ],
      "settings": {
        "foreground": "#d16969"
      }
    },
    {
      "scope": ["keyword.operator.or.regexp", "keyword.control.anchor.regexp"],
      "settings": {
        "foreground": "#bbbb88"
      }
    },
    {
      "scope": "keyword.operator.quantifier.regexp",
      "settings": {
        "foreground": "#d7ba7d"
      }
    },
    {
      "scope": "constant.character",
      "settings": {
        "foreground": "#4a8abf"
      }
    },
    {
      "scope": "constant.character.escape",
      "settings": {
        "foreground": "#d7ba7d"
      }
    },

    {
      "name": "Variable start",
      "scope": "punctuation.definition.variable",
      "settings": {
        "foreground": "#75a2f5"
      }
    },
    {
      "name": "User-defined constant",
      "scope": ["constant.character", "constant.other", "keyword.blade"],
      "settings": {
        "foreground": "#c37474"
      }
    },
    {
      "scope": "constant.language",
      "settings": {
        "foreground": "#c37474"
      }
    },
    {
      "name": "Number",
      "scope": "constant.numeric",
      "settings": {
        "foreground": "#c57e14"
      }
    },
    {
      "scope": "support.function",
      "settings": {
        "foreground": "#4a8abf"
      }
    },
    {
      "scope": "variable.language.this.php",
      "settings": {
        "foreground": "#ad71a8"
      }
    },
    {
      "scope": "storage.type.php",
      "settings": {
        "foreground": "#40af98"
      }
    },

    {
      "scope": "punctuation.separator.key-value.js",
      "settings": {
        "foreground": "#d4d4d4ff"
      }
    },
    {
      "scope": "meta.object-literal.key.js",
      "settings": {
        "foreground": "#40af98"
      }
    },
    {
      "scope": "variable.other.property",
      "settings": {
        "foreground": "#ad71a8"
      }
    },
    {
      "scope": "variable.other.property.php",
      "settings": {
        "foreground": "#74afce"
      }
    },
    {
      "scope": "variable.other.object.property.js",
      "settings": {
        "foreground": "#4a8abf"
      }
    },
    {
      "scope": ["punctuation.decorator.js", "meta.decorator.js"],
      "settings": {
        "foreground": "#ad71a8"
      }
    },
    {
      "scope": "variable.scss",
      "settings": {
        "foreground": "#ad71a8"
      }
    },
    {
      "scope": "entity.name.tag.css",
      "settings": {
        "foreground": "#4a8abf"
      }
    },
    {
      "scope": "entity.other.attribute-name.class.css",
      "settings": {
        "foreground": "#40af98"
      }
    },
    {
      "scope": "entity.other.attribute-name.pseudo-element.css",
      "settings": {
        "foreground": "#b5cea8"
      }
    },
    {
      "scope": ["support.constant.property-value.css"],
      "settings": {
        "foreground": "#ad71a8"
      }
    }
  ]
}
